Assignment 9: Visualization - Revealing a graph
…
## Warning: package 'dplyr' was built under R version 4.0.5

## Warning: package 'stringr' was built under R version 4.0.5

## Warning: package 'forcats' was built under R version 4.0.5

library(gganimate)

## Warning: package 'gganimate' was built under R version 4.0.5

df<- read_csv('https://covid19.who.int/WHO-COVID-19-global-data.csv')

df %>% filter(Date_reported=='2021-10-18') %>% arrange(-Cumulative_deaths)

## # A tibble: 181 x 8
##    Date_reported Country_code Country      WHO_region New_cases Cumulative_cases
##    <date>        <chr>        <chr>        <chr>          <dbl>            <dbl>
##  1 2021-10-18    IN           India        SEARO          13596         34081315
##  2 2021-10-18    RU           Russian Fed~ EURO           34325          8027012
##  3 2021-10-18    ID           Indonesia    SEARO            626          4235384
##  4 2021-10-18    GB           The United ~ EURO           44696          8449169
##  5 2021-10-18    IT           Italy        EURO            2435          4717899
##  6 2021-10-18    IR           Iran (Islam~ EMRO           11396          5784815
##  7 2021-10-18    FR           France       EURO            3778          6869661
##  8 2021-10-18    DE           Germany      EURO            4056          4377845
##  9 2021-10-18    ZA           South Africa AFRO             414          2916593
## 10 2021-10-18    ES           Spain        EURO               0          4982139
## # ... with 171 more rows, and 2 more variables: New_deaths <dbl>,
## #   Cumulative_deaths <dbl>
…
Create the new variable (column) death_per_cases recording the number of deaths per cases (Hint: divide cumulative deaths by cumulative cases). What are the three countries with the highest deaths per cases?

df$death_per_cases <- df$Cumulative_deaths/df$Cumulative_cases
df %>% filter(Date_reported=='2021-10-18') %>% arrange(-death_per_cases)

## # A tibble: 181 x 9
##    Date_reported Country_code Country      WHO_region New_cases Cumulative_cases
##    <date>        <chr>        <chr>        <chr>          <dbl>            <dbl>
##  1 2021-10-18    YE           Yemen        EMRO              14             9526
##  2 2021-10-18    SD           Sudan        EMRO             354            39839
##  3 2021-10-18    SY           Syrian Arab~ EMRO             381            39086
##  4 2021-10-18    EG           Egypt        EMRO             871           318456
##  5 2021-10-18    SO           Somalia      EMRO               0            21269
##  6 2021-10-18    LR           Liberia      AFRO               0             5807
##  7 2021-10-18    AF           Afghanistan  EMRO              24           155763
##  8 2021-10-18    BA           Bosnia and ~ EURO             223           244812
##  9 2021-10-18    CN           China        WPRO              28           125254
## 10 2021-10-18    BG           Bulgaria     EURO            1000           540619
## # ... with 171 more rows, and 3 more variables: New_deaths <dbl>,
## #   Cumulative_deaths <dbl>, death_per_cases <dbl>
…
df5 %>% filter(Date=='2021-10-17') %>% filter(Vaccine_Type == 'All') %>% arrange(-Stage_One_Doses)

## # A tibble: 61 x 13
##    Province_State Date       Vaccine_Type  FIPS Country_Region   Lat  Long_
##    <chr>          <date>     <chr>        <dbl> <chr>          <dbl>  <dbl>
##  1 California     2021-10-17 All              6 US              36.1 -120. 
##  2 Texas          2021-10-17 All             48 US              31.1  -97.6
##  3 Florida        2021-10-17 All             12 US              27.8  -81.7
##  4 New York       2021-10-17 All             36 US              42.2  -74.9
##  5 Pennsylvania   2021-10-17 All             42 US              40.6  -77.2
##  6 Illinois       2021-10-17 All             17 US              40.3  -89.0
##  7 New Jersey     2021-10-17 All             34 US              40.3  -74.5
##  8 North Carolina 2021-10-17 All             37 US              35.6  -79.8
##  9 Ohio           2021-10-17 All             39 US              40.4  -82.8
## 10 Virginia       2021-10-17 All             51 US              37.8  -78.2
## # ... with 51 more rows, and 6 more variables: Doses_alloc <dbl>,
## #   Doses_shipped <dbl>, Doses_admin <dbl>, Stage_One_Doses <dbl>,
## #   Stage_Two_Doses <dbl>, Combined_Key <chr>
…
